{
  "ExtendedData": {
    "inputs": [
      "http://localhost:58365/CalculadoraService.svc"
    ],
    "collectionTypes": [
      "System.Array",
      "System.Collections.Generic.Dictionary`2"
    ],
    "namespaceMappings": [
      "*, CalculadoraServiceReference"
    ],
    "targetFramework": "net6.0",
    "typeReuseMode": "All"
  }
}